module hsett.net/getpps

go 1.17

require (
	github.com/gosuri/uilive v0.0.4 // indirect
	github.com/mattn/go-isatty v0.0.14 // indirect
	golang.org/x/sys v0.0.0-20210630005230-0f9fa26af87c // indirect
)
